[
  {
    "title": "Socks",
    "price": 1,
    "imgUrl": "https://www.canyon.com/dw/image/v2/BCML_PRD/on/demandware.static/-/Sites-canyon-master/default/dw0be9713c/images/full/9101709_Ca/2022/9101709_Canyon_Signature_Pro_Wool_Socks_grey_full_v2.png",
    "article": 9379123992,
    "color": "brown"
  },
  {
    "title": "Socks",
    "price": 2,
    "imgUrl": "https://www.canyon.com/dw/image/v2/BCML_PRD/on/demandware.static/-/Sites-canyon-master/default/dw0be9713c/images/full/9101709_Ca/2022/9101709_Canyon_Signature_Pro_Wool_Socks_grey_full_v2.png",
    "article": 9373219992,
    "color": "brown"
  },
  {
    "title": "Socks",
    "price": 3,
    "imgUrl": "https://www.canyon.com/dw/image/v2/BCML_PRD/on/demandware.static/-/Sites-canyon-master/default/dw0be9713c/images/full/9101709_Ca/2022/9101709_Canyon_Signature_Pro_Wool_Socks_grey_full_v2.png",
    "article": 93479992,
    "color": "brown"
  },
  {
    "title": "Socks",
    "price": 4,
    "imgUrl": "https://www.canyon.com/dw/image/v2/BCML_PRD/on/demandware.static/-/Sites-canyon-master/default/dw0be9713c/images/full/9101709_Ca/2022/9101709_Canyon_Signature_Pro_Wool_Socks_grey_full_v2.png",
    "article": 9379996542,
    "color": "brown"
  },
  {
    "title": "Socks",
    "price": 5,
    "imgUrl": "https://www.canyon.com/dw/image/v2/BCML_PRD/on/demandware.static/-/Sites-canyon-master/default/dw0be9713c/images/full/9101709_Ca/2022/9101709_Canyon_Signature_Pro_Wool_Socks_grey_full_v2.png",
    "article": 9379992342,
    "color": "brown"
  },
  {
    "title": "Socks",
    "price": 6,
    "imgUrl": "https://www.canyon.com/dw/image/v2/BCML_PRD/on/demandware.static/-/Sites-canyon-master/default/dw0be9713c/images/full/9101709_Ca/2022/9101709_Canyon_Signature_Pro_Wool_Socks_grey_full_v2.png",
    "article": 937859992,
    "color": "brown"
  },
  {
    "title": "Socks",
    "price": 7,
    "imgUrl": "https://www.canyon.com/dw/image/v2/BCML_PRD/on/demandware.static/-/Sites-canyon-master/default/dw0be9713c/images/full/9101709_Ca/2022/9101709_Canyon_Signature_Pro_Wool_Socks_grey_full_v2.png",
    "article": 93787659992,
    "color": "brown"
  },
  {
    "title": "Socks",
    "price": 8,
    "imgUrl": "https://www.canyon.com/dw/image/v2/BCML_PRD/on/demandware.static/-/Sites-canyon-master/default/dw0be9713c/images/full/9101709_Ca/2022/9101709_Canyon_Signature_Pro_Wool_Socks_grey_full_v2.png",
    "article": 34569379992,
    "color": "brown"
  },
  {
    "title": "Socks",
    "price": 9,
    "imgUrl": "https://www.canyon.com/dw/image/v2/BCML_PRD/on/demandware.static/-/Sites-canyon-master/default/dw0be9713c/images/full/9101709_Ca/2022/9101709_Canyon_Signature_Pro_Wool_Socks_grey_full_v2.png",
    "article": 93775687992,
    "color": "brown"
  },
  {
    "title": "Socks",
    "price": 10,
    "imgUrl": "https://www.canyon.com/dw/image/v2/BCML_PRD/on/demandware.static/-/Sites-canyon-master/default/dw0be9713c/images/full/9101709_Ca/2022/9101709_Canyon_Signature_Pro_Wool_Socks_grey_full_v2.png",
    "article": 93967879992,
    "color": "brown"
  },
  {
    "title": "Socks",
    "price": 11,
    "imgUrl": "https://www.canyon.com/dw/image/v2/BCML_PRD/on/demandware.static/-/Sites-canyon-master/default/dw0be9713c/images/full/9101709_Ca/2022/9101709_Canyon_Signature_Pro_Wool_Socks_grey_full_v2.png",
    "article": 93799634592,
    "color": "brown"
  },
  {
    "title": "Socks",
    "price": 12,
    "imgUrl": "https://www.canyon.com/dw/image/v2/BCML_PRD/on/demandware.static/-/Sites-canyon-master/default/dw0be9713c/images/full/9101709_Ca/2022/9101709_Canyon_Signature_Pro_Wool_Socks_grey_full_v2.png",
    "article": 93765679992,
    "color": "brown"
  },
  {
    "title": "Socks",
    "price": 13,
    "imgUrl": "https://www.canyon.com/dw/image/v2/BCML_PRD/on/demandware.static/-/Sites-canyon-master/default/dw0be9713c/images/full/9101709_Ca/2022/9101709_Canyon_Signature_Pro_Wool_Socks_grey_full_v2.png",
    "article": 93798456992,
    "color": "brown"
  },
  {
    "title": "Socks",
    "price": 14,
    "imgUrl": "https://www.canyon.com/dw/image/v2/BCML_PRD/on/demandware.static/-/Sites-canyon-master/default/dw0be9713c/images/full/9101709_Ca/2022/9101709_Canyon_Signature_Pro_Wool_Socks_grey_full_v2.png",
    "article": 93799234592,
    "color": "brown"
  },
  {
    "title": "Socks",
    "price": 15,
    "imgUrl": "https://www.canyon.com/dw/image/v2/BCML_PRD/on/demandware.static/-/Sites-canyon-master/default/dw0be9713c/images/full/9101709_Ca/2022/9101709_Canyon_Signature_Pro_Wool_Socks_grey_full_v2.png",
    "article": 937634569992,
    "color": "brown"
  },
  {
    "title": "Socks",
    "price": 16,
    "imgUrl": "https://www.canyon.com/dw/image/v2/BCML_PRD/on/demandware.static/-/Sites-canyon-master/default/dw0be9713c/images/full/9101709_Ca/2022/9101709_Canyon_Signature_Pro_Wool_Socks_grey_full_v2.png",
    "article": 937984534992,
    "color": "brown"
  },
  {
    "title": "Socks",
    "price": 17,
    "imgUrl": "https://www.canyon.com/dw/image/v2/BCML_PRD/on/demandware.static/-/Sites-canyon-master/default/dw0be9713c/images/full/9101709_Ca/2022/9101709_Canyon_Signature_Pro_Wool_Socks_grey_full_v2.png",
    "article": 93792456367992,
    "color": "brown"
  },
  {
    "title": "Socks",
    "price": 18,
    "imgUrl": "https://www.canyon.com/dw/image/v2/BCML_PRD/on/demandware.static/-/Sites-canyon-master/default/dw0be9713c/images/full/9101709_Ca/2022/9101709_Canyon_Signature_Pro_Wool_Socks_grey_full_v2.png",
    "article": 9386443479992,
    "color": "brown"
  },
  {
    "title": "Socks",
    "price": 19,
    "imgUrl": "https://www.canyon.com/dw/image/v2/BCML_PRD/on/demandware.static/-/Sites-canyon-master/default/dw0be9713c/images/full/9101709_Ca/2022/9101709_Canyon_Signature_Pro_Wool_Socks_grey_full_v2.png",
    "article": 937874539992,
    "color": "brown"
  },
  {
    "title": "Socks",
    "price": 20,
    "imgUrl": "https://www.canyon.com/dw/image/v2/BCML_PRD/on/demandware.static/-/Sites-canyon-master/default/dw0be9713c/images/full/9101709_Ca/2022/9101709_Canyon_Signature_Pro_Wool_Socks_grey_full_v2.png",
    "article": 937974786992,
    "color": "brown"
  }
]
